Apartment;Adress;Postalcode;latitude;longitude
Wohnung 1;Neptunweg 14;04205 Leipzig;51.325409027585486;12.26821561692734
Wohnung 2;Siriusweg 7;04205 Leipzig;51.32552410810649;12.267448870608222
Wohnung 3;Neptunweg 12;04205 Leipzig;51.32549301283716;12.268598591927947
Wohnung 4;Limburgerstr. 11;04229 Leipzig;51.321742393527394;12.334891739435584
Wohnung 5;Erich-Zeigner-Allee 70;04229 Leipzig;51.32121076424425;12.3349962503368
Wohnung 6;Carpzovstr. 36;04317 Leipzig;51.32689993731684;12.41033570097426
Wohnung 7;Carpzovstr. 36;04317 Leipzig;51.32689993731684;12.41033570097426
Wohnung 8;Antonienstr. 37;04229 Leipzig;51.32005534883748;12.325947894456228
Wohnung 9;Brandvorwerkstr. 44;04275 Leipzig;51.320535040897276;12.367267503669906
Wohnung 10;Simon-Bolivar-Str. 93;04357 Leipzig;51.380722708910525;12.419017621837781
Wohnung 11;Gärtnerstr. 23;04209 Leipzig;51.31699503359307;12.30778638119833
Wohnung 12;Yorckstr. 44;04159 Leipzig;51.37021863187461;12.34449973983158
Wohnung 13;Nikolai-Rumjanzew-Str. 24;04207 Leipzig;51.31665916195103;12.307216089193805
Wohnung 14;Simon-Bolivar-Str. 87;04357 Leipzig;51.38030840723543;12.419185768355531
Wohnung 15;Zingster Str. 2A;04207 Leipzig;51.31034530926194;12.260009384666528
Wohnung 16;An der Kotsche 57;04207 Leipzig;51.31112402808529;12.266573631300536
Wohnung 17;Zingster Str. 37;04207 Leipzig;51.31313393154162;12.263160301690982
Wohnung 18;Zingster Str. 35;04207 Leipzig;51.312995992885135;12.263211879381373
Wohnung 19;Max-Lingner-Str. 6;04347 Leipzig;51.35568372160863;12.422281450311225
Wohnung 20;Asternweg 30;04209 Leipzig;51.32220000333979;12.299286485621948
Wohnung 21;Wiesenstr. 13;04329 Leipzig;51.356190400465785;12.4637972221553
Wohnung 22;Schwantesstr. 73;04347 Leipzig;51.355689308129335;12.432285690286351
Wohnung 23;Bästleinstr. 19;04347 Leipzig;51.35519736875318;12.425085224065834
Wohnung 24;Max-Lingner-Str. 2;04347 Leipzig;51.35499072684522;12.422682888122747
Wohnung 25;Barclayweg 9;04289 Leipzig;51.2937648972097;12.42908488323284
Wohnung 26;Bästleinstr. 36;04347 Leipzig;51.35659445092895;12.430889216877958
Wohnung 27;Max-Lingner-Str. 4;04347 Leipzig;51.35562058695786;12.423138561386446
Wohnung 28;Friedrich-Wolf-Str. 25;04347 Leipzig;51.36061834331421;12.427453141175
Wohnung 29;Mathildenstr. 11;04277 Leipzig;51.30692946290244;12.37187917199275
Wohnung 30;Friedrich-Wolf-Str. 28;04347 Leipzig;51.36105861611708;12.428249082526051
Wohnung 31;Otto-Michael-Str. 37;04357 Leipzig;51.37862609126481;12.404449869766573
Wohnung 32;Waldkerbelstr. 21;04329 Leipzig;51.358052463020115;12.458980942551849
Wohnung 33;Ahornstr. 7;04329 Leipzig;51.354900356482965;12.461279028068473
Wohnung 34;Platanenstr. 21;04329 Leipzig;51.35504363967453;12.461855339210958
Wohnung 35;Gundermannstr. 17;04329 Leipzig;51.35136645059571;12.462171329431918
Wohnung 36;Christian-Ferkel-Str. 14;04159 Leipzig;51.37021116792429;12.341173520434438
Wohnung 37;Simon-Bolivar-Str. 112;04357 Leipzig;51.38191281308205;12.419312935435174
Wohnung 38;Herloßsohnstr. 5 a;04155 Leipzig;51.35984134003544;12.354915135806685
Wohnung 39;Otto-Michael-Str. 47;04357 Leipzig;51.3785557346342;12.405219507201716
Wohnung 40;Walter-Albrecht-Weg 117 d;04357 Leipzig;51.379119301621884;12.408049952049279
Wohnung 41;Kurt-Tucholsky-Str. 8/602;04279 Leipzig;51.302179109342624;12.403755619673433
Wohnung 42;Bästleinstr. 3;04347 Leipzig;51.35536956264282;12.423358826210382
Wohnung 43;Stralsunder Str. 29;04357 Leipzig;51.382687130073435;12.419849293972462
Wohnung 44;Samuel-Lampel-Str. 18;04357 Leipzig;51.37841012575424;12.418693175173537
Wohnung 45;Sandmännchenweg 11;04277 Leipzig;51.30870562306813;12.39482680565099
Wohnung 46;Gaußstr. 53;04179 Leipzig;51.3527361025558;12.30707854461442
Wohnung 47;Willi-Bredel-Str. 01;04279 Leipzig;51.30224861005189;12.40167624325552
Wohnung 48;Walter-Albrecht-Weg 117 d;04357 Leipzig;51.379119301621884;12.408049952049279
Wohnung 49;Cunnersdorfer Str. 18;04318 Leipzig;51.34181087811003;12.429140983017064
Wohnung 50;Königsteinstr. 37;04207 Leipzig;51.30553541301254;12.262310765228058
Wohnung 51;An der Kotsche 63;04207 Leipzig;51.31123121441999;12.267176135842744
Wohnung 52;Heiterblickallee 16;04329 Leipzig;51.3531909824678;12.46048873070485
Wohnung 53;Königsteinstr. 41;04207 Leipzig;51.30526837990722;12.262428903939192
Wohnung 54;An der Kotsche 73;04207 Leipzig;51.311411037653286;12.268277495189352
Wohnung 55;An der Kotsche 69;04207 Leipzig;51.311337285210655;12.267836861678056
Wohnung 56;Breisgaustr. 3;04209 Leipzig;51.31768231687017;12.295887295626157
Wohnung 57;Liliensteinstr. 87;04207 Leipzig;51.30566974852303;12.268187532837723
Wohnung 58;Breisgaustr. 11;04209 Leipzig;51.31850872115046;12.293756988970989
Wohnung 59;Karlsruher Str. 46;04209 Leipzig;51.31629873056151;12.28098705426734
Wohnung 60;Uranusstr. 2;04205 Leipzig;51.32290646750802;12.273033657296772
Wohnung 61;Miltitzer Allee 42B;04205 Leipzig;51.31703267207523;12.267939129000174
Wohnung 62;Gogolstr. 91;04357 Leipzig;51.38236545293398;12.418606898207079
Wohnung 63;Limburgerstr. 17;04229 Leipzig;51.321841053736854;12.334517814203565
Wohnung 64;Zingster Str. 2A;04207 Leipzig;51.31034530926194;12.260009384666528
Wohnung 65;Limburgerstr. 13;04229 Leipzig;51.32174325254909;12.334848067015956
Wohnung 66;Uranusstr. 110;04205 Leipzig;51.32446310499119;12.272322677166699
Wohnung 67;Uranusstr. 40;04205 Leipzig;51.32335080075807;12.272239299890536
Wohnung 68;Hölderlinstr. 6;04157 Leipzig;51.37075713648271;12.366159797226437
Wohnung 69;Karl-Helbig-Str. 28;04159 Leipzig;51.37360027582286;12.334122872042084
Wohnung 70;Hans-Oster-Str. 31;04157 Leipzig;51.37504611543591;12.361228003093585
Wohnung 71;Strelitzer Str. 22;04157 Leipzig;51.3729156818522;12.37649573946476
Wohnung 72;Uranusstr. 34;04205 Leipzig;51.32273469667033;12.271990685367747
Wohnung 73;Gärtnerstr. 105;04209 Leipzig;51.319896584915874;12.307886339271828
Wohnung 74;Walter-Barth-Str. 3;04318 Leipzig;51.35044660523132;12.431472386075482
Wohnung 75;Gärtnerstr. 95;04209 Leipzig;51.31900130670379;12.308381127708289
Wohnung 76;Gogolstr. 87;04357 Leipzig;51.382197337547886;12.417445452414494
Wohnung 77;Stralsunder Str. 53;04357 Leipzig;51.38470947273137;12.4191810672258
Wohnung 78;Miltitzer Allee 42C;04205 Leipzig;51.3168363844283;12.268177266270937
Wohnung 79;Liliensteinstr. 55;04207 Leipzig;51.30633004349455;12.270899912357962
Wohnung 80;Komarowstr. 4;04357 Leipzig;51.38094821186106;12.418256025681885
Wohnung 81;Miltitzer Allee 38A;04205 Leipzig;51.31660516574352;12.266898441796853
Wohnung 82;Simon-Bolivar-Str. 99;04357 Leipzig;51.381091108631935;12.41886167775296
Wohnung 83;Simon-Bolivar-Str. 93;04357 Leipzig;51.380722708910525;12.419017621837781
Wohnung 84;Uranusstr. 114;04205 Leipzig;51.3241888178191;12.272819330493219
Wohnung 85;Grünauer Allee 72;04209 Leipzig;51.324292906358295;12.30247909507401
Wohnung 86;Grünauer Allee 66;04209 Leipzig;51.323978899425796;12.303133908090846
Wohnung 87;Komarowstr. 10;04357 Leipzig;51.38161115138174;12.417984057748779
Wohnung 88;Komarowstr. 27;04357 Leipzig;51.381407204339176;12.416339269618577
Wohnung 89;Gogolstr. 88;04357 Leipzig;51.38186706050522;12.41842049630733
Wohnung 90;Komarowstr. 27;04357 Leipzig;51.381407204339176;12.416339269618577
Wohnung 91;Komarowstr. 29;04357 Leipzig;51.38151095919869;12.417074208010655
Wohnung 92;Komarowstr. 4;04357 Leipzig;51.38094821186106;12.418256025681885
Wohnung 93;Blücherstr. 15d;04159 Leipzig;51.3689698831906;12.34254059133313
Wohnung 94;Uranusstr. 106;04205 Leipzig;51.324300449851876;12.271280117594957
Wohnung 95;Otto-Militzer-Str. 24;04249 Leipzig;51.3053523480431;12.321893177075992
Wohnung 96;Schönauer Ring 81;04205 Leipzig;51.32401020937479;12.285925591040256
Wohnung 97;Gersterstr. 36;04279 Leipzig;51.29503653483741;12.387585654271524
Wohnung 98;Gersterstr. 26;04279 Leipzig;51.2950680855153;12.388286332842915
Wohnung 99;Barclayweg 60;04289 Leipzig;51.291394242165744;12.428917713593412
Wohnung 100;Am Schwalbennest 13;04205 Leipzig;51.3234909939756;12.287284470341358
Wohnung 101;Zingster Str. 2A;04207 Leipzig;51.31034530926194;12.260009384666528
Wohnung 102;Zingster Str. 2A;04207 Leipzig;51.31034530926194;12.260009384666528
Wohnung 103;Uranusstr. 100;04205 Leipzig;51.323690749375984;12.270696665914802
Wohnung 104;Zingster Str. 2A;04207 Leipzig;51.31034530926194;12.260009384666528
Wohnung 105;Zingster Str. 2A;04207 Leipzig;51.31034530926194;12.260009384666528
Wohnung 106;Zingster Str. 2A;04207 Leipzig;51.31034530926194;12.260009384666528
Wohnung 107;Gärtnerstr. 71;04209 Leipzig;51.318599686034716;12.306496191179788
Wohnung 108;Uranusstr. 104;04205 Leipzig;51.32432391550961;12.271485272589805
Wohnung 109;Liliensteinstr. 55;04207 Leipzig;51.30633004349455;12.270899912357962
Wohnung 110;Zingster Str. 2A;04207 Leipzig;51.31034530926194;12.260009384666528
Wohnung 111;Liliensteinstr. 53;04207 Leipzig;51.306459142513496;12.270833367380193
Wohnung 112;Strelitzer Str. 50;04157 Leipzig;51.37473613292945;12.376778329602246
Wohnung 113;Strelitzer Str. 34;04157 Leipzig;51.37379985559834;12.376570054058266
Wohnung 114;Strelitzer Str. 26;04157 Leipzig;51.3731884436438;12.376553428538502
Wohnung 115;Gogolstr. 83;04357 Leipzig;51.38217501402188;12.417196241686295
Wohnung 116;An der Lautsche 28;04207 Leipzig;51.31048996765975;12.262959105020636
Wohnung 117;Liliensteinstr. 53;04207 Leipzig;51.306459142513496;12.270833367380193
Wohnung 118;Clausewitzstr. 9;04159 Leipzig;51.37056234014223;12.347901270826187
Wohnung 119;Dessauer Str. 45;04129 Leipzig;51.36209064316076;12.39359080101096
Wohnung 120;Annaberger Str. 11;04159 Leipzig;51.373346503981026;12.331236321395146
Wohnung 121;Schönauer Ring 21;04205 Leipzig;51.32879983999725;12.286597760918456
Wohnung 122;Hartzstr. 18;04129 Leipzig;51.361238692548255;12.391009298648868
Wohnung 123;Uranusstr. 46;04205 Leipzig;51.323580164755654;12.272658499192232
Wohnung 124;Dahlienstr. 115;04209 Leipzig;51.32569979273625;12.303379259144972
Wohnung 125;Dahlienstr. 109;04209 Leipzig;51.32588444377864;12.304685376248392
Wohnung 126;Uranusstr. 20;04205 Leipzig;51.321834552573925;12.27274823503012
Wohnung 127;Miltitzer Allee 42B;04205 Leipzig;51.31703267207523;12.267939129000174
Wohnung 128;Miltitzer Allee 42B;04205 Leipzig;51.31703267207523;12.267939129000174
Wohnung 129;Virchowstr. 83;04157 Leipzig;51.37412867954297;12.37747673830767
Wohnung 130;Gärtnerstr. 89;04209 Leipzig;51.31888322701057;12.307879873684426
Wohnung 131;Schildberger Weg 15;04357 Leipzig;51.38115420425132;12.400888990880144
Wohnung 132;Credestr. 17;04179 Leipzig;51.3309600070617;12.31318560824216
Wohnung 133;Saalfelder Str. 9B;04179 Leipzig;51.330499221912234;12.31948804156979
Wohnung 134;Gersterstr. 28;04279 Leipzig;51.295052771367786;12.388139910389956
Wohnung 135;Bergerstr. 1;04347 Leipzig;51.35204724223671;12.40667935913086
Wohnung 136;Fuchshainer Str. 9;04317 Leipzig;51.32633361249652;12.409446558518288
Wohnung 137;Hartzstr. 20;04129 Leipzig;51.36131518062275;12.390838211656138
Wohnung 138;Radiusstr. 12;04179 Leipzig;51.33058512443695;12.31274433895865
Wohnung 139;Strelitzer Str. 32;04157 Leipzig;51.37354533629862;12.376513295422203
Wohnung 140;Hans-Oster-Str. 17;04157 Leipzig;51.373820246935615;12.360888646429105
Wohnung 141;Yorckstr. 28;04159 Leipzig;51.36985220882861;12.346873545069595
Wohnung 142;Uranusstr. 72;04205 Leipzig;51.322590419261964;12.271896221669833
Wohnung 143;Potschkaustr. 12;04209 Leipzig;51.31209967150461;12.281888791655907
Wohnung 144;Berkaer Weg 1;04207 Leipzig;51.3127999673299;12.297176551572914
Wohnung 145;Uranusstr. 74;04205 Leipzig;51.32275886199785;12.271204988795445
Wohnung 146;Schönefelder Allee 3;04347 Leipzig;51.35214054686768;12.406130073295536
Wohnung 147;Potschkaustr. 56;04209 Leipzig;51.31452467759359;12.28208035059448
Wohnung 148;Walter-Barth-Str. 1;04318 Leipzig;51.35023652209014;12.431475999871012
Wohnung 149;Liliensteinstr. 81;04207 Leipzig;51.30576063077041;12.268687212633829
Wohnung 150;Essener Str. 70;04357 Leipzig;51.375617864250714;12.40511147343266
Wohnung 151;Komarowstr. 4;04357 Leipzig;51.38094821186106;12.418256025681885
Wohnung 152;Strelitzer Str. 44;04157 Leipzig;51.37437070214195;12.376788848669063
Wohnung 153;Grünauer Allee 16;04209 Leipzig;51.31758342825377;12.306169064946939
Wohnung 154;Potschkaustr. 24;04209 Leipzig;51.313119749776114;12.281545368991823
Wohnung 155;Miltitzer Allee 42B;04205 Leipzig;51.31703267207523;12.267939129000174
Wohnung 156;Karlsruher Str. 50;04209 Leipzig;51.316695164468726;12.280787905687879
Wohnung 157;Potschkaustr. 4;04209 Leipzig;51.312290439820735;12.282888791107773
Wohnung 158;Alte Salzstr. 169;04209 Leipzig;51.31508597808648;12.28137936015458
Wohnung 159;Gärtnerstr. 23;04209 Leipzig;51.31699503359307;12.30778638119833
Wohnung 160;An der Kotsche 67;04207 Leipzig;51.31123366276672;12.267525889929047
Wohnung 161;An der Kotsche 63;04207 Leipzig;51.31123121441999;12.267176135842744
Wohnung 162;An der Kotsche 67;04207 Leipzig;51.31123366276672;12.267525889929047
Wohnung 163;An der Kotsche 63;04207 Leipzig;51.31123121441999;12.267176135842744
Wohnung 164;An der Kotsche 61;04207 Leipzig;51.311206629089774;12.267029258997834
Wohnung 165;An der Kotsche 55;04207 Leipzig;51.31108286589638;12.266338540777223
Wohnung 166;An der Kotsche 43;04207 Leipzig;51.31064796951288;12.267118634629501
Wohnung 167;Zingster Str. 39;04207 Leipzig;51.313253626375555;12.263107837975529
Wohnung 168;Am Schwalbennest 18;04205 Leipzig;51.324695907675135;12.287299890581668
Wohnung 169;Bästleinstr. 35;04347 Leipzig;51.35518496968821;12.426586611890313
Wohnung 170;Kreuzdornstr. 15;04329 Leipzig;51.35355543747266;12.456556114962119
Wohnung 171;Waldzieststr. 4;04329 Leipzig;51.352036241344955;12.46025273923077
Wohnung 172;Waldzieststr. 2;04329 Leipzig;51.352076345554316;12.460079872615648
Wohnung 173;Waldzieststr. 9;04329 Leipzig;51.35213224561058;12.46178893343299
Wohnung 174;Kursdorfer Weg 26;04205 Leipzig;51.32647293295796;12.285580059256139
Wohnung 175;Kursdorfer Weg 6;04205 Leipzig;51.325359925141996;12.285059147617808
Wohnung 176;Kursdorfer Weg 2;04205 Leipzig;51.324984219869805;12.284180946658129
Wohnung 177;Asternweg 38;04209 Leipzig;51.32289973918632;12.298985852744623
Wohnung 178;Saturnstr. 1;04205 Leipzig;51.32503283728561;12.272131870009398
Wohnung 179;Saturnstr. 7;04205 Leipzig;51.325438655155324;12.271918494507553
Wohnung 180;Königsteinstr. 57;04207 Leipzig;51.3056666566641;12.263089150702609
Wohnung 181;Königsteinstr. 51;04207 Leipzig;51.30524316220742;12.263272521416551
Wohnung 182;Bästleinstr. 37;04347 Leipzig;51.35548715574334;12.426544026024821
Wohnung 183;Waldkerbelstr. 25;04329 Leipzig;51.357844792169615;12.45886788910435
Wohnung 184;Waldkerbelstr. 17;04329 Leipzig;51.358139450536065;12.459189711846063
Wohnung 185;Goldsternstr. 43;04329 Leipzig;51.357217481596955;12.458295168809553
Wohnung 186;Hainbuchenstr. 46;04329 Leipzig;51.357367034230116;12.458128058846215
Wohnung 187;Kreuzdornstr. 18;04329 Leipzig;51.35384541715471;12.45622142801378
Wohnung 188;Goldsternstr. 5;04329 Leipzig;51.354296645941076;12.45647855108545
Wohnung 189;Goldsternstr. 3;04329 Leipzig;51.354088671106254;12.45638008472133
Wohnung 190;Goldsternstr. 9;04329 Leipzig;51.35455263549962;12.456462888324959
Wohnung 191;Haselstr. 15;04329 Leipzig;51.35237938783994;12.454700475663346
Wohnung 192;Südblick 28;04329 Leipzig;51.35118275591342;12.453397954962254
Wohnung 193;Heiterblickallee 63;04329 Leipzig;51.355829137342475;12.45919895875322
Wohnung 194;Goldsternstr. 44;04329 Leipzig;51.356389963588015;12.458572320414715
Wohnung 195;Goldsternstr. 36;04329 Leipzig;51.35588476114827;12.457393569733538
Wohnung 196;Goldsternstr. 36;04329 Leipzig;51.35588476114827;12.457393569733538
Wohnung 197;Goldsternstr. 32;04329 Leipzig;51.35539502157038;12.457673972340512
Wohnung 198;Heiterblickallee 61;04329 Leipzig;51.35554970510799;12.459023787647054
Wohnung 199;Heiterblickallee 51;04329 Leipzig;51.35440099256549;12.458496482610476
Wohnung 200;Kreuzdornstr. 24;04329 Leipzig;51.35388645666298;12.454677833359145
Wohnung 201;Kreuzdornstr. 13;04329 Leipzig;51.353524158111746;12.456744037885187
Wohnung 202;Südblick 22;04329 Leipzig;51.35100022187223;12.454277824386478
Wohnung 203;Südblick 18;04329 Leipzig;51.35141527253043;12.45451842414239
Wohnung 204;Wiesenstr. 45;04329 Leipzig;51.35798233179921;12.463687856286993
Wohnung 205;Platanenstr. 58;04329 Leipzig;51.357187905043716;12.463689577514618
Wohnung 206;Platanenstr. 58;04329 Leipzig;51.357187905043716;12.463689577514618
Wohnung 207;Platanenstr. 37;04329 Leipzig;51.35598738667351;12.462138563918813
Wohnung 208;Kreuzdornstr. 8;04329 Leipzig;51.35361703677172;12.457550978285797
Wohnung 209;Heiterblickallee 37;04329 Leipzig;51.35440031267223;12.45808812796201
Wohnung 210;Heiterblickallee 35;04329 Leipzig;51.35412856972981;12.458423770255541
Wohnung 211;Wiesenstr. 6;04329 Leipzig;51.356495441541476;12.462296677179463
Wohnung 212;Wiesenstr. 2;04329 Leipzig;51.35669476708748;12.461490537575374
Wohnung 213;Ahornstr. 1;04329 Leipzig;51.355155977995295;12.460840463054746
Wohnung 214;Waldzieststr. 6;04329 Leipzig;51.351985808993824;12.460483388211403
Wohnung 215;Waldzieststr. 4;04329 Leipzig;51.352036241344955;12.46025273923077
Wohnung 216;Waldzieststr. 11;04329 Leipzig;51.35197900070083;12.461693340577197
Wohnung 217;Platanenstr. 13;04329 Leipzig;51.35373475177132;12.461567408587337
Wohnung 218;Am Vorwerk 5;04329 Leipzig;51.35305001099997;12.461122908717183
Wohnung 219;Am Vorwerk 5;04329 Leipzig;51.35305001099997;12.461122908717183
Wohnung 220;Heiterblickallee 2;04329 Leipzig;51.35133596797135;12.45967621804246
Wohnung 221;Platanenstr. 5;04329 Leipzig;51.35333856142523;12.461298565058575
Wohnung 222;Heiterblickallee 14;04329 Leipzig;51.35212557047434;12.459907487461797
Wohnung 223;Heiterblickallee 10;04329 Leipzig;51.35193614184646;12.459795407736115
Wohnung 224;Gundermannstr. 17;04329 Leipzig;51.35136645059571;12.462171329431918
Wohnung 225;Gundermannstr. 13;04329 Leipzig;51.35114996308753;12.462043229959061
Wohnung 226;Samuel-Lampel-Str. 8;04357 Leipzig;51.37805507222517;12.418193256738448
Wohnung 227;Stralsunder Str. 41;04357 Leipzig;51.38345922781438;12.419597604995174
Wohnung 228;Simon-Bolivar-Str. 90/1209;04357 Leipzig;51.379994952517954;12.41978228066568
Wohnung 229;Simon-Bolivar-Str. 90/0206;04357 Leipzig;51.379994952517954;12.41978228066568
Wohnung 230;Komarowstr. 1/1505;04357 Leipzig;51.379213311861854;12.41511651319548
Wohnung 231;Komarowstr. 1/0406;04357 Leipzig;51.379213311861854;12.41511651319548
Wohnung 232;Schildberger Weg 24;04357 Leipzig;51.380336701463236;12.405194815248635
Wohnung 233;Dölziger Weg 8;04205 Leipzig;51.32648681950728;12.28533299931647
Wohnung 234;Dölziger Weg 6;04205 Leipzig;51.32621021045089;12.284998830302174
Wohnung 235;Am Schwalbennest 32;04205 Leipzig;51.324899936716754;12.286187821044784
Wohnung 236;Am Schwalbennest 28;04205 Leipzig;51.32548387808319;12.286682794032506
Wohnung 237;Asternweg 47;04209 Leipzig;51.32389531550479;12.298495791232698
Wohnung 238;Asternweg 36;04209 Leipzig;51.32269906134064;12.29897595341439
Wohnung 239;Asternweg 34;04209 Leipzig;51.32248700618702;12.29908206760107
Wohnung 240;Grünauer Allee 47;04209 Leipzig;51.3229047131962;12.302497943709222
Wohnung 241;Grünauer Allee 45;04209 Leipzig;51.32267779998883;12.302428445445344
Wohnung 242;Marsweg 9;04205 Leipzig;51.325694486011315;12.270954597816791
Wohnung 243;Marsweg 7;04205 Leipzig;51.32538970222134;12.270181971986823
Wohnung 244;Marsweg 1;04205 Leipzig;51.32639038318385;12.269895543914311
Wohnung 245;Saturnstr. 23;04205 Leipzig;51.3261934690688;12.27064373904066
Wohnung 246;Saturnstr. 19;04205 Leipzig;51.32660137515183;12.271275678198771
Wohnung 247;Saturnstr. 13;04205 Leipzig;51.326092917729945;12.272081546244994
Wohnung 248;Königsteinstr. 55;04207 Leipzig;51.30555608334595;12.263142048724445
Wohnung 249;Königsteinstr. 49;04207 Leipzig;51.30516300775338;12.263166666964473
Wohnung 250;Königsteinstr. 31;04207 Leipzig;51.30589532983734;12.262109733478527
Wohnung 251;Königsteinstr. 23;04207 Leipzig;51.30626045045617;12.262593578568065
Wohnung 252;Königsteinstr. 5;04207 Leipzig;51.306546684715734;12.264340899738071
Wohnung 253;Königsteinstr. 3;04207 Leipzig;51.30659641741246;12.264605515055782
Wohnung 254;Pfaffensteinstr. 2;04207 Leipzig;51.30640620197952;12.265004140404248
Wohnung 255;Selliner Str. 35;04207 Leipzig;51.31299751377072;12.261216048723865
Wohnung 256;Selliner Str. 21;04207 Leipzig;51.313174617591336;12.262462979170484
Wohnung 257;Kloßstr. 23;04249 Leipzig;51.30576537653302;12.321316510508279
Wohnung 258;Dinterstr. 28;04157 Leipzig;51.365701214870924;12.378388303637017
Wohnung 259;Am Schwalbennest 33;04205 Leipzig;51.32429647584602;12.285283878358845
Wohnung 260;Karlsruher Str. 25;04209 Leipzig;51.31489682639359;12.281719767010255
Wohnung 261;Theresienstr. 38;04129 Leipzig;51.36151640034329;12.39036725128983
Wohnung 262;Yorckstr. 22;04159 Leipzig;51.36968707190039;12.3473757619191
Wohnung 263;Gärtnerstr. 23;04209 Leipzig;51.31699503359307;12.30778638119833
Wohnung 264;Gärtnerstr. 115;04209 Leipzig;51.31969888646853;12.306783723921026
Wohnung 265;Karlsruher Str. 5;04209 Leipzig;51.312982578547754;12.282980962563451
Wohnung 266;Gärtnerstr. 85;04209 Leipzig;51.318788548545584;12.307583770981841
Wohnung 267;Gärtnerstr. 63;04209 Leipzig;51.318788548545584;12.307583770981841
Wohnung 268;Brandstr. 27;04277 Leipzig;51.30799799303461;12.370039729692783
Wohnung 269;Viertelsweg 4;04157 Leipzig;51.37136391076697;12.376474874769132
Wohnung 270;Uranusstr. 70;04205 Leipzig;51.32278225616;12.271891001558014
Wohnung 271;Miltitzer Allee 42A;04205 Leipzig;51.316999244009594;12.267777233267513
Wohnung 272;Gärtnerstr. 121;04209 Leipzig;51.31960102329241;12.30618147032492
Wohnung 273;Komarowstr. 4;04357 Leipzig;51.38094821186106;12.418256025681885
Wohnung 274;Liliensteinstr. 81;04207 Leipzig;51.30576063077041;12.268687212633829
Wohnung 275;Potschkaustr. 40;04209 Leipzig;51.31399583566332;12.28109290113438
Wohnung 276;Uranusstr. 92;04205 Leipzig;51.32289561184088;12.269783617772852
Wohnung 277;Karlsruher Str. 46;04209 Leipzig;51.31629873056151;12.28098705426734
Wohnung 278;Gärtnerstr. 13;04209 Leipzig;51.31678990951569;12.306596046876434
Wohnung 279;Alte Salzstr. 179;04209 Leipzig;51.314998785900656;12.280690331652819
Wohnung 280;Gogolstr. 95;04357 Leipzig;51.38243041210244;12.419004240006982
Wohnung 281;Liliensteinstr. 53;04207 Leipzig;51.306459142513496;12.270833367380193
Wohnung 282;Stralsunder Str. 55;04357 Leipzig;51.38487454042788;12.419145871312008
Wohnung 283;Stralsunder Str. 49;04357 Leipzig;51.38446023940694;12.419314031683514
Wohnung 284;Ziolkowskistr. 3;04357 Leipzig;51.382443011660484;12.417487395650223
Wohnung 285;Gogolstr. 89;04357 Leipzig;51.38234988024691;12.418474767156772
Wohnung 286;Miltitzer Allee 42C;04205 Leipzig;51.3168363844283;12.268177266270937
Wohnung 287;Gärtnerstr. 9;04209 Leipzig;51.316690065603645;12.30609572375201
Wohnung 288;Uranusstr. 82;04205 Leipzig;51.32326592206042;12.270471960519115
Wohnung 289;Essener Str. 70A;04357 Leipzig;51.37562315090358;12.405301405126698
Wohnung 290;Miltitzer Allee 42A;04205 Leipzig;51.316999244009594;12.267777233267513
Wohnung 291;Uranusstr. 116;04205 Leipzig;51.324280314678745;12.27280922049954
Wohnung 292;Gärtnerstr. 123;04209 Leipzig;51.319595860942364;12.305977221286128
Wohnung 293;Gärtnerstr. 119;04209 Leipzig;51.319494179113825;12.306511315276815
Wohnung 294;Karlsruher Str. 46;04209 Leipzig;51.31629873056151;12.28098705426734
Wohnung 295;Berkaer Weg 1;04207 Leipzig;51.3127999673299;12.297176551572914
Wohnung 296;Simon-Bolivar-Str. 103;04357 Leipzig;51.38132091339285;12.41878607481018
Wohnung 297;Uranusstr. 86;04205 Leipzig;51.32249920102815;12.271891774998
Wohnung 298;Miltitzer Allee 38A;04205 Leipzig;51.31660516574352;12.266898441796853
Wohnung 299;Stralsunder Str. 53;04357 Leipzig;51.38470947273137;12.4191810672258
Wohnung 300;Grünauer Allee 10;04209 Leipzig;51.31762076357417;12.306127201166335
Wohnung 301;Stralsunder Str. 47;04357 Leipzig;51.3843407765508;12.419351597420631
Wohnung 302;Simon-Bolivar-Str. 105;04357 Leipzig;51.381449497245406;12.418748984057988
Wohnung 303;Uranusstr. 86;04205 Leipzig;51.32249920102815;12.271891774998
Wohnung 304;Liliensteinstr. 49;04207 Leipzig;51.30670738308721;12.270743491542033
Wohnung 305;Uranusstr. 62;04205 Leipzig;51.32371825397048;12.271645189258805
Wohnung 306;Uranusstr. 72;04205 Leipzig;51.322590419261964;12.271896221669833
Wohnung 307;Gärtnerstr. 67;04209 Leipzig;51.31869754766025;12.307098432501858
Wohnung 308;Uranusstr. 36;04205 Leipzig;51.32299233668368;12.271886670742923
Wohnung 309;Ratzelstr. 2;04207 Leipzig;51.315288726932025;12.310076753047802
Wohnung 310;Gärtnerstr. 117;04209 Leipzig;51.31969372515472;12.306579474386824
Wohnung 311;Uranusstr. 70;04205 Leipzig;51.32278225616;12.271891001558014
Wohnung 312;Uranusstr. 114;04205 Leipzig;51.3241888178191;12.272819330493219
Wohnung 313;Uranusstr. 76;04205 Leipzig;51.322889631332416;12.271051071907404
Wohnung 314;Uranusstr. 58;04205 Leipzig;51.32380215408324;12.272509031656309
Wohnung 315;Liliensteinstr. 87;04207 Leipzig;51.30566974852303;12.268187532837723
Wohnung 316;Liliensteinstr. 79;04207 Leipzig;51.30581230158093;12.268849957828898
Wohnung 317;Karlsruher Str. 40;04209 Leipzig;51.31599564166102;12.281555010227732
Wohnung 318;Uranusstr. 114;04205 Leipzig;51.3241888178191;12.272819330493219
Wohnung 319;Liliensteinstr. 73;04207 Leipzig;51.30589405913035;12.269349196432453
Wohnung 320;Miltitzer Allee 42A;04205 Leipzig;51.316999244009594;12.267777233267513
Wohnung 321;Miltitzer Allee 40A;04205 Leipzig;51.31687381728234;12.267173765428247
Wohnung 322;Uranusstr. 36;04205 Leipzig;51.32299233668368;12.271886670742923
Wohnung 323;Miltitzer Allee 40;04205 Leipzig;51.31688544145169;12.267043201820858
Wohnung 324;Uranusstr. 100;04205 Leipzig;51.323690749375984;12.270696665914802
Wohnung 325;Uranusstr. 108;04205 Leipzig;51.3243913182934;12.271780003114475
Wohnung 326;Ziolkowskistr. 27;04357 Leipzig;51.384382971712895;12.4186241933375
Wohnung 327;Bergerstr. 1;04347 Leipzig;51.35204724223671;12.40667935913086
Wohnung 328;Uranusstr. 88;04205 Leipzig;51.32356854538563;12.270880147777051
Wohnung 329;Potschkaustr. 26;04209 Leipzig;51.313101337110574;12.281078266425437
Wohnung 330;Uranusstr. 16;04205 Leipzig;51.32184359733433;12.273229534763388
Wohnung 331;Uranusstr. 56;04205 Leipzig;51.32380215408324;12.272509031656309
Wohnung 332;Potschkaustr. 74;04209 Leipzig;51.31479457757499;12.280388953772723
Wohnung 333;Stralsunder Str. 59;04357 Leipzig;51.384874021929726;12.418722673318447
Wohnung 334;Brandstr. 33;04277 Leipzig;51.30844367253123;12.36966905492945
Wohnung 335;Gärtnerstr. 111;04209 Leipzig;51.31978218165876;12.30719583550096
Wohnung 336;Gärtnerstr. 57;04209 Leipzig;51.31900130670379;12.308381127708289
Wohnung 337;Uranusstr. 66;04205 Leipzig;51.32322818287216;12.271490154626836
Wohnung 338;Schönauer Ring 79;04205 Leipzig;51.32419977965752;12.285089696982888
Wohnung 339;Schönauer Ring 79;04205 Leipzig;51.32419977965752;12.285089696982888
Wohnung 340;Clausewitzstr. 23;04159 Leipzig;51.36987305758281;12.348129074259692
Wohnung 341;Uranusstr. 32;04205 Leipzig;51.32290438891057;12.272188391288989
Wohnung 342;Uranusstr. 118;04205 Leipzig;51.32425517903627;12.272691416840791
Wohnung 343;Uranusstr. 68;04205 Leipzig;51.32318396658881;12.271415140119373
Wohnung 344;Ziolkowskistr. 7;04357 Leipzig;51.38267311184688;12.417397207721399
Wohnung 345;Grünauer Allee 74;04209 Leipzig;51.32439324506271;12.302484052437753
Wohnung 346;Max-Liebermann-Str. 56;04157 Leipzig;51.37541588796718;12.360998750416456
Wohnung 347;Rosenowstr. 77;04357 Leipzig;51.38116479071703;12.401268898520733
Wohnung 348;Lützner Str. 198;04179 Leipzig;51.330077521529255;12.313491582573915
Wohnung 349;Karlsruher Str. 11;04209 Leipzig;51.31303490667743;12.282633874616636
Wohnung 350;Liliensteinstr. 49;04207 Leipzig;51.30670738308721;12.270743491542033
Wohnung 351;Uhrigstr. 8;04159 Leipzig;51.37071478770187;12.34341609906475
Wohnung 352;Yorckstr. 32;04159 Leipzig;51.37052744486268;12.345507217391424
Wohnung 353;Max-Liebermann-Str. 56;04157 Leipzig;51.37541588796718;12.360998750416456
Wohnung 354;Rosenowstr. 81;04357 Leipzig;51.381446954929984;12.401312637802084
Wohnung 355;Walter-Albrecht-Weg 89;04357 Leipzig;51.37982778065726;12.402819457952976
Wohnung 356;Liliensteinstr. 51;04207 Leipzig;51.30658740602855;12.270810481425821
Wohnung 357;Liliensteinstr. 53;04207 Leipzig;51.306459142513496;12.270833367380193
Wohnung 358;Liliensteinstr. 49;04207 Leipzig;51.30670738308721;12.270743491542033
Wohnung 359;Liliensteinstr. 71;04207 Leipzig;51.3059551292617;12.269497833928865
Wohnung 360;Simon-Bolivar-Str. 105;04357 Leipzig;51.381449497245406;12.418748984057988
Wohnung 361;Barclayweg 46;04289 Leipzig;51.29205485127521;12.428762800251222
Wohnung 362;Hölderlinstr. 4;04157 Leipzig;51.370762939521754;12.365868345174848
Wohnung 363;Grünauer Allee 62;04209 Leipzig;51.323592879717175;12.30279424274907
Wohnung 364;Radiusstr. 2;04179 Leipzig;51.32997657265166;12.31304934276956
Wohnung 365;Carpzovstr. 25;04317 Leipzig;51.32781932322273;12.41137430237591
Wohnung 366;Mannheimer Str. 126;04209 Leipzig;51.315439828140086;12.286714560888965
Wohnung 367;Schiebestr. 37b;04129 Leipzig;51.36348785383633;12.388134825929683
Wohnung 368;Vaclav-Neumann-Str. 27;04299 Leipzig;51.31805935045764;12.42074860158701
Wohnung 369;Siriusweg 2;04205 Leipzig;51.32608837708265;12.26658738693483
Wohnung 370;Ferdinand-Jost-Str. 45;04299 Leipzig;51.32135950633452;12.422348099213288
Wohnung 371;Reinhardtstr. 9;04318 Leipzig;51.3473903203202;12.431793995123199
Wohnung 372;Neptunweg 2;04205 Leipzig;51.32629328806163;12.268287801888821
Wohnung 373;Dessauer Str. 43;04129 Leipzig;51.361582181899024;12.392995862586885
Wohnung 374;Wichernstr. 33;04318 Leipzig;51.33591493680982;12.42141397367215
Wohnung 375;Philipp-Reis-Str. 89;04179 Leipzig;51.352367141089665;12.30633120671497
Wohnung 376;Mannheimer Str. 114;04209 Leipzig;51.314990726504966;12.285381281969824
Wohnung 377;Dieskaustr. 383a;04249 Leipzig;51.28248562892265;12.31319857051219
Wohnung 378;Strelitzer Str. 50;04157 Leipzig;51.37473613292945;12.376778329602246
Wohnung 379;Gedikestr. 8;04129 Leipzig;51.36391499833501;12.38732536971445
Wohnung 380;Gedikestr. 16;04129 Leipzig;51.36391391431725;12.38828794665021
Wohnung 381;Reinhardtstr. 13;04318 Leipzig;51.34766395320546;12.431808281407324
Wohnung 382;Blüthnerstr. 29;04179 Leipzig;51.35102858453013;12.3084957880654
Wohnung 383;Lößniger Str. 60a;04275 Leipzig;51.31815233574347;12.3813968648123
Wohnung 384;Mannheimer Str. 80;04209 Leipzig;51.31399660184285;12.28579875313736
Wohnung 385;Ölßnerstr. 2a;04357 Leipzig;51.37293367610138;12.411858470538384
Wohnung 386;Mannheimer Str. 110;04209 Leipzig;51.3148151699628;12.285489229449981
Wohnung 387;Mannheimer Str. 74;04209 Leipzig;51.31429580914829;12.286381624042566
Wohnung 388;Friedrichshafner Str. 165;04357 Leipzig;51.37790811547931;12.405638327668663
Wohnung 389;Walter-Albrecht-Weg 95;04357 Leipzig;51.37977303991291;12.403268934604421
Wohnung 390;Heidelberger Str. 18;04209 Leipzig;51.3200943299178;12.287292629649905
Wohnung 391;Ulmer Str. 3;04209 Leipzig;51.320368099201794;12.28587809779654
Wohnung 392;Mannheimer Str. 102;04209 Leipzig;51.31468347869648;12.283792732880265
Wohnung 393;Am Schwalbennest 23;04205 Leipzig;51.324658845591145;12.286380007970008
Wohnung 394;Hans-Beimler-Str. 19;04159 Leipzig;51.37285117871191;12.334143664265143
Wohnung 395;Probstheidaer Str. 97;04277 Leipzig;51.30385042900747;12.39606320666704
Wohnung 396;Mannheimer Str. 106;04209 Leipzig;51.31469023755509;12.28439040556515
Wohnung 397;Schildberger Weg 39;04357 Leipzig;51.38088695506812;12.404172715015807
Wohnung 398;Georg-Schumann-Str. 56b;04155 Leipzig;51.362019744464114;12.36979949497821
Wohnung 399;Viertelsweg 15;04157 Leipzig;51.37129972972252;12.36963003201817
Wohnung 400;Löbauer Str. 62;04347 Leipzig;51.35708551670096;12.423389789347398
Wohnung 401;Fritz-Simonis-Str. 3;04159 Leipzig;51.37274461102006;12.336778709401578
Wohnung 402;Mannheimer Str. 118;04209 Leipzig;51.31518707272611;12.286090243290346
Wohnung 403;Dieskaustr. 397;04249 Leipzig;51.28219949236339;12.311015040624529
Wohnung 404;Blüthnerstr. 30;04179 Leipzig;51.351087779255565;12.307798842034329
Wohnung 405;Diderotstr. 15;04159 Leipzig;51.37077918573489;12.345242743151474
Wohnung 406;Rosenweg 24;04209 Leipzig;51.323896364585906;12.300798262704014
Wohnung 407;Theodor-Neubauer-Str. 74;04318 Leipzig;51.33578876253055;12.422675593792452
Wohnung 408;Gedikestr. 10;04129 Leipzig;51.36392002064365;12.387529821990702
Wohnung 409;Bertolt-Brecht-Str. 13;04347 Leipzig;51.35656748052853;12.428189897412947
Wohnung 410;Max-Lingner-Str. 22;04347 Leipzig;51.35674554254319;12.422599181318136
Wohnung 411;Mannheimer Str. 84;04209 Leipzig;51.31379436836682;12.285395472321492
Wohnung 412;Heimteichstr. 19;04179 Leipzig;51.350829447130955;12.309346182633677
Wohnung 413;Rosenweg 34;04209 Leipzig;51.32369690848749;12.299782932602636
Wohnung 414;Karl-Schurz-Str. 31;04179 Leipzig;51.3518941559658;12.307649244232579
Wohnung 415;Schiebestr. 38;04129 Leipzig;51.36301802729138;12.388796227052616
Wohnung 416;Rosenowstr. 77;04357 Leipzig;51.38116479071703;12.401268898520733
Wohnung 417;Schildberger Weg 13;04357 Leipzig;51.38115773723251;12.40071408322439
Wohnung 418;Walter-Albrecht-Weg 93;04357 Leipzig;51.379775692300534;12.403137757891866
Wohnung 419;Dahlienstr. 111;04209 Leipzig;51.32580085752283;12.304287774134739
Wohnung 420;Schönauer Ring 7;04205 Leipzig;51.3288371859354;12.288450459502755
Wohnung 421;Am Schwalbennest 27;04205 Leipzig;51.32499635068139;12.286396566398922
Wohnung 422;Portitzer Str. 34;04318 Leipzig;51.346696495356206;12.425984007461485
Wohnung 423;Dieskaustr. 387;04249 Leipzig;51.28215346484304;12.31243957297918
Wohnung 424;Neumannstr. 20;04318 Leipzig;51.33744789208833;12.413840594195202
Wohnung 425;Mockauer Str. 96;04357 Leipzig;51.371970861826;12.409810030706351
Wohnung 426;Dölitzer Str. 34;04277 Leipzig;51.30354370057269;12.381364444316397
Wohnung 427;Hans-Beimler-Str. 24;04159 Leipzig;51.372980428093925;12.335929862765372
Wohnung 428;Heimteichstr. 31;04179 Leipzig;51.351806809962184;12.308855144366143
Wohnung 429;Beuthstr. 169;04357 Leipzig;51.37312073206985;12.412539227404908
Wohnung 430;Lößniger Str. 37;04275 Leipzig;51.31902010607009;12.381834627342213
Wohnung 431;Hans-Beimler-Str. 44;04159 Leipzig;51.37338798219011;12.333309889269934
Wohnung 432;Sattelhofstr. 10;04179 Leipzig;51.34605677655145;12.313439611806734
Wohnung 433;Erika-v.-Brockdorff-Str. 21;04159 Leipzig;51.36962660715923;12.34442616576761
Wohnung 434;Mannheimer Str. 86;04209 Leipzig;51.313798292058095;12.285191698212202
Wohnung 435;Fritz-Simonis-Str. 19;04159 Leipzig;51.37347479144929;12.337719819410406
Wohnung 436;Löbauer Str. 64;04347 Leipzig;51.35692302796958;12.423745917960229
Wohnung 437;Gedikestr. 22;04129 Leipzig;51.36391483407511;12.388696383508776
Wohnung 438;Beuthstr. 153;04357 Leipzig;51.37222632568189;12.412069820863426
Wohnung 439;Ölßnerstr. 2c;04357 Leipzig;51.373123739566395;12.411941259675999
Wohnung 440;Scheffelstr. 48b;04277 Leipzig;51.31111239077719;12.377759247901045
Wohnung 441;Mockauer Str. 110;04357 Leipzig;51.37312703976273;12.411328718811738
Wohnung 442;Bertolt-Brecht-Str. 27;04347 Leipzig;51.356146013430575;12.428707498472619
Wohnung 443;Altenburger Str. 20;04275 Leipzig;51.31806277894936;12.382674533611338
Wohnung 444;Heimteichstr. 17;04179 Leipzig;51.35068236931955;12.3093972130287
Wohnung 445;Scheffelstr. 44c;04277 Leipzig;51.31111484694201;12.376724991208874
Wohnung 446;Mannheimer Str. 118;04209 Leipzig;51.31518707272611;12.286090243290346
Wohnung 447;Saarbrückenstr. 15;04318 Leipzig;51.335548937763406;12.422794313085731
Wohnung 448;Diderotstr. 21;04159 Leipzig;51.371084421532125;12.345506104213891
Wohnung 449;Wilhelm-Winkler-Str. 26;04178 Leipzig;51.35420990325563;12.287524524562432
Wohnung 450;Erika-v.-Brockdorff-Str. 17;04159 Leipzig;51.36942910002824;12.344255765188386
Wohnung 451;Ölßnerstr. 2a;04357 Leipzig;51.37293367610138;12.411858470538384
Wohnung 452;Franz-Mehring-Str. 38;04157 Leipzig;51.37086098301354;12.368280246517365
Wohnung 453;Fritz-Simonis-Str. 15;04159 Leipzig;51.373227756441715;12.336817549559584
Wohnung 454;Rosenweg 22;04209 Leipzig;51.324272986037485;12.301152021792385
Wohnung 455;Hardenbergstr. 82;04275 Leipzig;51.31843581662697;12.382285613633671
Wohnung 456;Max-Pommer-Str. 4;04317 Leipzig;51.32711314144957;12.411527220814195
Wohnung 457;Diderotstr. 15;04159 Leipzig;51.37077918573489;12.345242743151474
Wohnung 458;Wolfshainer Str. 3;04317 Leipzig;51.3266535755217;12.411226535287167
Wohnung 459;Dieskaustr. 385;04249 Leipzig;51.282149494326404;12.312643206585662
Wohnung 460;Saturnstr. 41;04205 Leipzig;51.32618482544461;12.266796097064859
Wohnung 461;Ölßnerstr. 1c;04357 Leipzig;51.37260004152857;12.411651538254551
Wohnung 462;Schiebestr. 39;04129 Leipzig;51.36328927938326;12.388474684759213
Wohnung 463;Hardenbergstr. 82;04275 Leipzig;51.31843581662697;12.382285613633671
Wohnung 464;Klingenstr. 43;04229 Leipzig;51.31993050646014;12.323930839773912
Wohnung 465;Ölßnerstr. 1d;04357 Leipzig;51.37265861248739;12.411464925549152
Wohnung 466;Bielastr. 33;04178 Leipzig;51.35515840912386;12.289947977896329
Wohnung 467;Siriusweg 24;04205 Leipzig;51.32515372794076;12.267241407590724
Wohnung 468;Feldlerchenweg 6a;04178 Leipzig;51.352072359747076;12.28852769650056
Wohnung 469;Bernhard-Göring-Str. 139;04277 Leipzig;51.3137192132521;12.37707632769437
Wohnung 470;Carpzovstr. 23;04317 Leipzig;51.32800850391023;12.411500686268425
Wohnung 471;Arthur-Hoffmann-Str. 142;04277 Leipzig;51.313007693806604;12.37840956284713
Wohnung 472;Altenburger Str. 8;04275 Leipzig;51.31913998254841;12.382685888915839
Wohnung 473;Carpzovstr. 23;04317 Leipzig;51.32800850391023;12.411500686268425
Wohnung 474;Watestr. 48;04279 Leipzig;51.30104984226779;12.395482313898626
Wohnung 475;Mockauer Str. 108;04357 Leipzig;51.3730543669382;12.41131036609066
Wohnung 476;Hofer Str. 31;04317 Leipzig;51.328086110832736;12.412175119538777
Wohnung 477;Kantor-Andrä-Str. 5;04178 Leipzig;51.35591915935948;12.288847970828852
Wohnung 478;Hofer Str. 15;04317 Leipzig;51.32689689263305;12.41138486461559
Wohnung 479;Ulmer Str. 1;04209 Leipzig;51.320687770104776;12.285398355893607
Wohnung 480;Mannheimer Str. 90;04209 Leipzig;51.314096355108404;12.284885789697649
Wohnung 481;Erika-v.-Brockdorff-Str. 15;04159 Leipzig;51.36932108128074;12.344177392314911
Wohnung 482;Heidelberger Str. 10;04209 Leipzig;51.320491054181694;12.287078961102555
Wohnung 483;Breisgaustr. 65/0902;04209 Leipzig;51.31652540146714;12.284392926625896
Wohnung 484;Permoserstr. 24/0202;04318 Leipzig;51.35085484288367;12.43204779692196
Wohnung 485;Mockauer Str. 90;04357 Leipzig;51.37175871282647;12.409915752371514
Wohnung 486;Max-Lingner-Str. 20;04347 Leipzig;51.356586500016185;12.421890910826445
Wohnung 487;Gedikestr. 12b;04129 Leipzig;51.36359697219363;12.38770286528883
Wohnung 488;Beuthstr. 167;04357 Leipzig;51.37307571846906;12.412507717845868
Wohnung 489;Heimteichstr. 13;04179 Leipzig;51.35043325495095;12.309530667515919
Wohnung 490;Plovdiver Str. 68/0603;04205 Leipzig;51.32328385495123;12.266188696459404
Wohnung 491;Breisgaustr. 63/0503;04209 Leipzig;51.31659557425984;12.284542064799483
Wohnung 492;Schildberger Weg 19;04357 Leipzig;51.38103265824881;12.402385572593822
Wohnung 493;Taurusweg 27;04205 Leipzig;51.324499099774364;12.265184015338203
Wohnung 494;Siriusweg 20;04205 Leipzig;51.32479881068594;12.267180423726646
Wohnung 495;Neptunweg 6;04205 Leipzig;51.3259900424903;12.268389623695537
Wohnung 496;Heilbronner Str. 2/0501;04209 Leipzig;51.320183643947296;12.284076814714533
Wohnung 497;Püchauer Str. 1a;04318 Leipzig;51.34541784352257;12.426894258689092
Wohnung 498;Carpzovstr. 23a;04317 Leipzig;51.327900231692546;12.411436786157466
Wohnung 499;Theodor-Neubauer-Str. 62;04318 Leipzig;51.33592125452139;12.420656308879058
Wohnung 500;Siriusweg 28;04205 Leipzig;51.32479881068594;12.267180423726646
Wohnung 501;Breisgaustr. 65/1002;04209 Leipzig;51.31652540146714;12.284392926625896
Wohnung 502;Heilbronner Str. 5;04209 Leipzig;51.32078446594722;12.285592523282004
Wohnung 503;Rosenweg 2;04209 Leipzig;51.322996972794925;12.301977909403435
Wohnung 504;Breisgaustr. 31/0702;04209 Leipzig;51.317127793778816;12.289143157067295
Wohnung 505;Bielastr. 58a;04178 Leipzig;51.35312948578803;12.288156782010356
Wohnung 506;Karl-Schurz-Str. 60;04179 Leipzig;51.351895718414056;12.306628646062347
Wohnung 507;Ulmer Str. 1;04209 Leipzig;51.320687770104776;12.285398355893607
Wohnung 508;Ulmer Str. 5;04209 Leipzig;51.32039391114486;12.285485944118514
Wohnung 509;Breisgaustr. 75/0401;04209 Leipzig;51.3171850522155;12.282851687324982
Wohnung 510;Ulmer Str. 5;04209 Leipzig;51.32039391114486;12.285485944118514
Wohnung 511;Rosenweg 10;04209 Leipzig;51.32348635139783;12.301696066637726
Wohnung 512;Mannheimer Str. 72;04209 Leipzig;51.3143941861632;12.286488434018109
Wohnung 513;Dieskaustr. 383;04249 Leipzig;51.282423149486405;12.31265677411801
Wohnung 514;Rosenweg 14;04209 Leipzig;51.32380072334003;12.301493009222284
Wohnung 515;Heilbronner Str. 3;04209 Leipzig;51.32078377615259;12.286102482174913
Wohnung 516;Portitzer Str. 30;04318 Leipzig;51.346300018631034;12.42661946087134
Wohnung 517;Ulmer Str. 3;04209 Leipzig;51.320368099201794;12.28587809779654
Wohnung 518;Rosenweg 24;04209 Leipzig;51.323896364585906;12.300798262704014
Wohnung 519;Reichsbahnerstraße 1/0401;04319 Leipzig;51.33732288271846;12.474476010509141
Wohnung 520;Ulmer Str. 1;04209 Leipzig;51.320687770104776;12.285398355893607
Wohnung 521;Taurusweg 5;04205 Leipzig;51.32557598570728;12.265688109776137
Wohnung 522;Taurusweg 31;04205 Leipzig;51.32449775554469;12.264775926821217
Wohnung 523;Rosenweg 8;04209 Leipzig;51.323386012618;12.30169111106642
Wohnung 524;Siriusweg 4;04205 Leipzig;51.325898486456666;12.266490714952937
Wohnung 525;Löbauer Str. 56;04347 Leipzig;51.356922913573634;12.422856325989784
Wohnung 526;Max-Pommer-Str. 4;04317 Leipzig;51.32711314144957;12.411527220814195
Wohnung 527;Siriusweg 26;04205 Leipzig;51.324956886277114;12.267508707054134
Wohnung 528;Leonhard-Frank-Str. 39/0301;04318 Leipzig;51.34635850861166;12.430457075470677
Wohnung 529;Dahlienstr. 3/0401;04209 Leipzig;51.32339486428549;12.30499942456631
Wohnung 530;Taurusweg 17;04205 Leipzig;51.32559066435513;12.265397371388666
Wohnung 531;Siriusweg 8;04205 Leipzig;51.3258078240709;12.2664571602299
Wohnung 532;Schiebestr. 27;04129 Leipzig;51.36327617496867;12.38685506194578
Wohnung 533;Neptunweg 6;04205 Leipzig;51.3259900424903;12.268389623695537
Wohnung 534;Siriusweg 4;04205 Leipzig;51.325898486456666;12.266490714952937
Wohnung 535;Taurusweg 11;04205 Leipzig;51.32501978333069;12.266127386474551
Wohnung 536;Rosenweg 8;04209 Leipzig;51.323386012618;12.30169111106642
Wohnung 537;Antonienstr. 47;04229 Leipzig;51.32024577341557;12.32461683887296
Wohnung 538;Schildberger Weg 29;04357 Leipzig;51.38097849422079;12.40325822378126
Wohnung 539;Taurusweg 27;04205 Leipzig;51.324499099774364;12.265184015338203
Wohnung 540;Siriusweg 10;04205 Leipzig;51.32517424828116;12.266644934252264
Wohnung 541;Rosenweg 10;04209 Leipzig;51.32348635139783;12.301696066637726
Wohnung 542;Mockauer Str. 114;04357 Leipzig;51.373327703206236;12.411339113008088
Wohnung 543;Reichsbahnerstraße 1/0402;04319 Leipzig;51.33732288271846;12.474476010509141
Wohnung 544;Taurusweg 5;04205 Leipzig;51.32557598570728;12.265688109776137
Wohnung 545;Siriusweg 1;04205 Leipzig;51.32608837708265;12.26658738693483
Wohnung 546;Taurusweg 3;04205 Leipzig;51.32550768691204;12.26591795048932
Wohnung 547;Saturnstr. 49;04205 Leipzig;51.326093198670506;12.265378082269738
Wohnung 548;Neptunweg 2;04205 Leipzig;51.32629328806163;12.268287801888821
Wohnung 549;Rosenweg 4;04209 Leipzig;51.32318739940453;12.30204560365696
Wohnung 550;Schiebestr. 29;04129 Leipzig;51.36328090535401;12.387074081498177
Wohnung 551;Ulmer Str. 3;04209 Leipzig;51.320368099201794;12.28587809779654
Wohnung 552;Bielastr. 58;04178 Leipzig;51.35315741198126;12.289076779856789
Wohnung 553;Heidelberger Str. 14;04209 Leipzig;51.31987666302801;12.28674282263636
Wohnung 554;Löbauer Str. 56;04347 Leipzig;51.356922913573634;12.422856325989784
Wohnung 555;Siriusweg 28;04205 Leipzig;51.32479881068594;12.267180423726646
Wohnung 556;Siriusweg 14;04205 Leipzig;51.325262686743876;12.266794960765498
Wohnung 557;Siriusweg 10;04205 Leipzig;51.32517424828116;12.266644934252264
Wohnung 558;Rosenweg 10;04209 Leipzig;51.32348635139783;12.301696066637726
Wohnung 559;Rosenweg 10;04209 Leipzig;51.32348635139783;12.301696066637726
Wohnung 560;Löbauer Str. 66;04347 Leipzig;51.35687604356276;12.42470597487335
Wohnung 561;Max-Lingner-Str. 14;04347 Leipzig;51.355988876425904;12.422093159787742
Wohnung 562;Max-Lingner-Str. 18;04347 Leipzig;51.356586500016185;12.421890910826445
Wohnung 563;Heidelberger Str. 14;04209 Leipzig;51.31987666302801;12.28674282263636
Wohnung 564;Max-Lingner-Str. 14;04347 Leipzig;51.3561939089642;12.42233715400803
Wohnung 565;Max-Lingner-Str. 12;04347 Leipzig;51.3560958651889;12.422667465756781
Wohnung 566;Löbauer Str. 54;04347 Leipzig;51.35709609330987;12.421975747276994
Wohnung 567;Max-Lingner-Str. 12;04347 Leipzig;51.3560958651889;12.422667465756781
Wohnung 568;Taurusweg 17;04205 Leipzig;51.32559066435513;12.265397371388666
Wohnung 569;Taurusweg 27;04205 Leipzig;51.324499099774364;12.265184015338203
Wohnung 570;Löbauer Str. 58;04347 Leipzig;51.35709065855798;12.42269005237711
Wohnung 571;Max-Lingner-Str. 20;04347 Leipzig;51.356586500016185;12.421890910826445
Wohnung 572;Max-Lingner-Str. 14;04347 Leipzig;51.355988876425904;12.422093159787742
Wohnung 573;Taurusweg 21;04205 Leipzig;51.324633658005574;12.265788020025674
Wohnung 574;Max-Lingner-Str. 18;04347 Leipzig;51.356586500016185;12.421890910826445
Wohnung 575;Taurusweg 13;04205 Leipzig;51.325040528139965;12.265997243328448
Wohnung 576;Max-Lingner-Str. 24;04347 Leipzig;51.35699962230085;12.42178114577977
Wohnung 577;Rosenweg 14;04209 Leipzig;51.32380072334003;12.301493009222284
Wohnung 578;Siriusweg 4;04205 Leipzig;51.325898486456666;12.266490714952937
Wohnung 579;Antonienstr. 47;04229 Leipzig;51.32024577341557;12.32461683887296
Wohnung 580;Siriusweg 5;04205 Leipzig;51.325430719290836;12.267080012708902
Wohnung 581;Siriusweg 6;04205 Leipzig;51.3258078240709;12.2664571602299
Wohnung 582;Siriusweg 2;04205 Leipzig;51.32608837708265;12.26658738693483
Wohnung 583;Siriusweg 2;04205 Leipzig;51.32608837708265;12.26658738693483
Wohnung 584;Siriusweg 6;04205 Leipzig;51.3258078240709;12.2664571602299
Wohnung 585;Siriusweg 7;04205 Leipzig;51.32552410810649;12.267448870608222
Wohnung 586;Saturnstr. 35;04205 Leipzig;51.32639390626568;12.268278126540586
Wohnung 587;Siriusweg 4;04205 Leipzig;51.325898486456666;12.266490714952937
Wohnung 588;Siriusweg 16;04205 Leipzig;51.32517424828116;12.266644934252264
Wohnung 589;Saturnstr. 41;04205 Leipzig;51.32618482544461;12.266796097064859
Wohnung 590;Taurusweg 9;04205 Leipzig;51.325040528139965;12.265997243328448
Wohnung 591;Löbauer Str. 60;04347 Leipzig;51.3570844190257;12.42299597969047
Wohnung 592;Neptunweg 18;04205 Leipzig;51.324987139116224;12.268792552731432
Wohnung 593;Siriusweg 4;04205 Leipzig;51.325898486456666;12.266490714952937
Wohnung 594;Siriusweg 28;04205 Leipzig;51.32479881068594;12.267180423726646
Wohnung 595;Löbauer Str. 66;04347 Leipzig;51.35687604356276;12.42470597487335
Wohnung 596;Siriusweg 22;04205 Leipzig;51.325355242325884;12.267207493797631
Wohnung 597;Löbauer Str. 58;04347 Leipzig;51.35709065855798;12.42269005237711
Wohnung 598;Heilbronner Str. 1;04209 Leipzig;51.32099372626466;12.286579061694518
Wohnung 599;Neptunweg 12;04205 Leipzig;51.32549301283716;12.268598591927947
Wohnung 600;Heidelberger Str. 18;04209 Leipzig;51.3200943299178;12.287292629649905
Wohnung 601;Siriusweg 18;04205 Leipzig;51.32517424828116;12.266644934252264
Wohnung 602;Siriusweg 8;04205 Leipzig;51.3258078240709;12.2664571602299
Wohnung 603;Rosenweg 6;04209 Leipzig;51.323192198522136;12.30179811551509
Wohnung 604;Neptunweg 8;04205 Leipzig;51.32578713683597;12.268496328532885
Wohnung 605;Mannheimer Str. 86;04209 Leipzig;51.313798292058095;12.285191698212202
Wohnung 606;Siriusweg 20;04205 Leipzig;51.32479881068594;12.267180423726646
Wohnung 607;Neptunweg 20;04205 Leipzig;51.3248867990435;12.268787667822295
Wohnung 608;Neptunweg 4;04205 Leipzig;51.326026030982156;12.267939620126318
Wohnung 609;Heilbronner Str. 5;04209 Leipzig;51.32078446594722;12.285592523282004
Wohnung 610;Neptunweg 8;04205 Leipzig;51.32578713683597;12.268496328532885
Wohnung 611;Friedrich-Wolf-Str. 10/0301;04347 Leipzig;51.359635433795276;12.428189451768741
Wohnung 612;Siriusweg 3;04205 Leipzig;51.32479881068594;12.267180423726646
Wohnung 613;Siriusweg 9;04205 Leipzig;51.32552410810649;12.267448870608222
Wohnung 614;Siriusweg 14;04205 Leipzig;51.325262686743876;12.266794960765498
Wohnung 615;Ulmer Str. 7;04209 Leipzig;51.32030045098403;12.285597929650958
Wohnung 616;Siriusweg 6;04205 Leipzig;51.3258078240709;12.2664571602299
Wohnung 617;Nelkenweg 7;04209 Leipzig;51.324596096417025;12.299084109070812
Wohnung 618;Ulmer Str. 1;04209 Leipzig;51.320687770104776;12.285398355893607
Wohnung 619;Heilbronner Str. 3;04209 Leipzig;51.32078377615259;12.286102482174913
Wohnung 620;Siriusweg 18;04205 Leipzig;51.32517424828116;12.266644934252264
Wohnung 621;Siriusweg 4;04205 Leipzig;51.325898486456666;12.266490714952937
Wohnung 622;Rosenweg 18;04209 Leipzig;51.3239962304851;12.301298651821941
Wohnung 623;Heidelberger Str. 6;04209 Leipzig;51.32079431654749;12.286977272872374
Wohnung 624;Ulmer Str. 3;04209 Leipzig;51.320368099201794;12.28587809779654
Wohnung 625;Heidelberger Str. 12;04209 Leipzig;51.32007650082199;12.286796340447761
Wohnung 626;Schildberger Weg 35;04357 Leipzig;51.38090374106448;12.403794222174445
Wohnung 627;Schildberger Weg 27;04357 Leipzig;51.380990857055906;12.403098363463261
Wohnung 628;Wilhelm-Busch-Str. 1/0202;04357 Leipzig;51.3709437139924;12.40552643784722
Wohnung 629;Heidelberger Str. 2;04209 Leipzig;51.321673504445315;12.286364697407375
Wohnung 630;Asternweg 50;04209 Leipzig;51.32408912656099;12.298388771440894
Wohnung 631;Nelkenweg 11;04209 Leipzig;51.32450016752182;12.298379898482668
Wohnung 632;Nelkenweg 9;04209 Leipzig;51.32449424792912;12.29868562813321
Wohnung 633;Asternweg 52;04209 Leipzig;51.32428265564766;12.298296309248537
Wohnung 634;Schildberger Weg 33;04357 Leipzig;51.380933757216454;12.403664455423094
Wohnung 635;Löbauer Str. 54;04347 Leipzig;51.35709609330987;12.421975747276994
Wohnung 636;Heilbronner Str. 1;04209 Leipzig;51.32099372626466;12.286579061694518
Wohnung 637;Ulmer Str. 3;04209 Leipzig;51.320368099201794;12.28587809779654
Wohnung 638;Heilbronner Str. 1;04209 Leipzig;51.32099372626466;12.286579061694518
Wohnung 639;Heilbronner Str. 1;04209 Leipzig;51.32099372626466;12.286579061694518
Wohnung 640;Heidelberger Str. 18;04209 Leipzig;51.3200943299178;12.287292629649905
Wohnung 641;Ulmer Str. 1;04209 Leipzig;51.320687770104776;12.285398355893607
Wohnung 642;Heidelberger Str. 16;04209 Leipzig;51.31995440449699;12.28649893049336
Wohnung 643;Heidelberger Str. 16;04209 Leipzig;51.31995440449699;12.28649893049336
Wohnung 644;Heilbronner Str. 1;04209 Leipzig;51.32099372626466;12.286579061694518
Wohnung 645;Ulmer Str. 1;04209 Leipzig;51.320687770104776;12.285398355893607
Wohnung 646;Neptunweg 8;04205 Leipzig;51.32578713683597;12.268496328532885
Wohnung 647;Nelkenweg 3;04209 Leipzig;51.3246900468132;12.299890232809036
Wohnung 648;Rosenweg 26;04209 Leipzig;51.323900596832964;12.300579887382536
Wohnung 649;Neptunweg 10;04205 Leipzig;51.32568679678862;12.268491444177526
Wohnung 650;Rosenweg 34;04209 Leipzig;51.32369690848749;12.299782932602636
Wohnung 651;Rosenweg 16;04209 Leipzig;51.32400769999252;12.301648953935796
Wohnung 652;Siriusweg 12;04205 Leipzig;51.32524416508706;12.266808632353808
Wohnung 653;Siriusweg 6;04205 Leipzig;51.3258078240709;12.2664571602299
Wohnung 654;Rosenweg 4;04209 Leipzig;51.323645178584286;12.301980782921254
Wohnung 655;Rosenweg 2;04209 Leipzig;51.322996972794925;12.301977909403435
Wohnung 656;Rosenweg 22;04209 Leipzig;51.324272986037485;12.301152021792385
Wohnung 657;Rosenweg 30;04209 Leipzig;51.324167383438215;12.300476478440652
Wohnung 658;Mannheimer Str. 72;04209 Leipzig;51.3143941861632;12.286488434018109
Wohnung 659;Rosenweg 8;04209 Leipzig;51.323386012618;12.30169111106642
Wohnung 660;Rosenweg 44;04209 Leipzig;51.32359750066997;12.29878711875271
Wohnung 661;Permoserstr. 16/0102;04318 Leipzig;51.35088602957055;12.430970391478162
Wohnung 662;Ulmer Str. 1;04209 Leipzig;51.320687770104776;12.285398355893607
Wohnung 663;Neptunweg 16;04205 Leipzig;51.32519916693679;12.268686295079346
Wohnung 664;Rosenweg 12;04209 Leipzig;51.32401371664676;12.301809546673478
Wohnung 665;Neptunweg 8;04205 Leipzig;51.32578713683597;12.268496328532885
Wohnung 666;Schildberger Weg 19;04357 Leipzig;51.38103265824881;12.402385572593822
Wohnung 667;Rosenweg 34;04209 Leipzig;51.32369690848749;12.299782932602636
Wohnung 668;Rosenweg 20;04209 Leipzig;51.32389786723638;12.30119178859541
Wohnung 669;Rosenweg 8;04209 Leipzig;51.323386012618;12.30169111106642
Wohnung 670;Rosenweg 38;04209 Leipzig;51.324035257969385;12.299755912515172
Wohnung 671;Rosenweg 28;04209 Leipzig;51.32378568221951;12.300384775424648
Wohnung 672;Rosenweg 2;04209 Leipzig;51.322996972794925;12.301977909403435
Wohnung 673;Bielastr. 60a;04178 Leipzig;51.352992941931994;12.288135492359613
